<svg id="Group_2948" data-name="Group 2948" xmlns="http://www.w3.org/2000/svg" xmlns:xlink="http://www.w3.org/1999/xlink" width="48" height="48" viewBox="0 0 48 48">
  <defs>
    <linearGradient id="linear-gradient" x1="0.456" y1="0.602" x2="0.911" y2="0.217" gradientUnits="objectBoundingBox">
      <stop offset="0" stop-color="#17c2c9"/>
      <stop offset="1" stop-color="#ff722a"/>
    </linearGradient>
    <linearGradient id="linear-gradient-2" x1="-0.637" y1="0.8" x2="1.637" y2="0.2" xlink:href="#linear-gradient"/>
    <linearGradient id="linear-gradient-3" x1="-0.228" y1="0.829" x2="0.863" y2="0.089" xlink:href="#linear-gradient"/>
    <linearGradient id="linear-gradient-4" x1="-0.556" y1="0.746" x2="1.555" y2="0.254" xlink:href="#linear-gradient"/>
    <linearGradient id="linear-gradient-5" x1="0.146" y1="0.854" x2="0.854" y2="0.146" xlink:href="#linear-gradient"/>
  </defs>
  <g id="Group_2944" data-name="Group 2944" transform="translate(32.427 12.193)">
    <path id="Path_2659" data-name="Path 2659" d="M678.177,272.509a.955.955,0,0,1-.955-.955,12.9,12.9,0,0,0-3.927-9.308.955.955,0,1,1,1.332-1.368,14.79,14.79,0,0,1,4.5,10.676A.955.955,0,0,1,678.177,272.509Z" transform="translate(-673.006 -260.607)" fill="#17c2c9"/>
  </g>
  <g id="Group_2945" data-name="Group 2945" transform="translate(11.403 8.236)">
    <path id="Path_2660" data-name="Path 2660" d="M244.541,187.452a.955.955,0,0,1-.772-1.516,14.959,14.959,0,0,1,12.063-6.151,14.753,14.753,0,0,1,6.627,1.551.955.955,0,0,1-.85,1.71,12.859,12.859,0,0,0-5.777-1.352,13.044,13.044,0,0,0-10.519,5.364A.955.955,0,0,1,244.541,187.452Z" transform="translate(-243.587 -179.785)" fill="#17c2c9"/>
  </g>
  <g id="Group_2946" data-name="Group 2946" transform="translate(8.425 17.189)">
    <path id="Path_2661" data-name="Path 2661" d="M184.582,375.682a.956.956,0,0,1-.9-.625,14.947,14.947,0,0,1,.687-11.888.955.955,0,1,1,1.7.864,13.037,13.037,0,0,0-.6,10.363.955.955,0,0,1-.9,1.286Z" transform="translate(-182.77 -362.646)" fill="#17c2c9"/>
  </g>
  <g id="Group_2947" data-name="Group 2947" transform="translate(36.252 27.222)">
    <path id="Path_2662" data-name="Path 2662" d="M752.075,574.1a1,1,0,0,1-.126-.008.955.955,0,0,1-.822-1.072,45.371,45.371,0,0,0,.36-4.535.955.955,0,0,1,.954-.925h.03a.955.955,0,0,1,.925.984,47.249,47.249,0,0,1-.375,4.726A.955.955,0,0,1,752.075,574.1Z" transform="translate(-751.119 -567.563)" fill="#17c2c9"/>
  </g>
  <path id="Path_2663" data-name="Path 2663" d="M348.629,303.841a.5.5,0,0,1-.494-.589,46.926,46.926,0,0,0,.6-9.573,12.682,12.682,0,0,0-1.358-5.4,8.654,8.654,0,0,0-8-5.107,8.977,8.977,0,0,0-6.984,3.26l-.056.069-.014.018a.5.5,0,0,1-.78-.63l.014-.018.061-.075a9.977,9.977,0,0,1,7.759-3.627,9.488,9.488,0,0,1,5.319,1.531,10.681,10.681,0,0,1,3.576,4.119,13.678,13.678,0,0,1,1.469,5.821,47.945,47.945,0,0,1-.613,9.784A.5.5,0,0,1,348.629,303.841Z" transform="translate(-315.722 -268.923)" fill="url(#linear-gradient)"/>
  <path id="Path_2664" data-name="Path 2664" d="M278.909,454.114a.5.5,0,0,1-.45-.722c.605-1.236,1.518-4,.825-8.652a9.733,9.733,0,0,1-.04-2.587.5.5,0,1,1,1,.119,8.727,8.727,0,0,0,.036,2.321c.314,2.111.613,6.118-.917,9.241A.5.5,0,0,1,278.909,454.114Z" transform="translate(-265.3 -420.651)" fill="#17c2c9"/>
  <path id="Path_2665" data-name="Path 2665" d="M560.312,598.6a.5.5,0,0,1-.477-.657,29.378,29.378,0,0,0,1.349-7.877.5.5,0,1,1,1,.041,30.38,30.38,0,0,1-1.4,8.146A.5.5,0,0,1,560.312,598.6Z" transform="translate(-532.925 -561.283)" fill="url(#linear-gradient-2)"/>
  <path id="Path_2666" data-name="Path 2666" d="M354.943,398.35a.5.5,0,0,1-.4-.805h0a10.474,10.474,0,0,0,1.3-2.586,11.866,11.866,0,0,0,.4-6.543,11.35,11.35,0,0,1-.139-3.279c.261-2.363,1.351-3.994,3.154-4.717a5.422,5.422,0,0,1,7.136,3.534,7.243,7.243,0,0,1,.238,1.16c.065.489.154,1.288.209,2.313a.5.5,0,1,1-1,.054c-.054-.993-.14-1.764-.2-2.236a6.267,6.267,0,0,0-.2-1,4.419,4.419,0,0,0-5.8-2.893c-1.458.585-2.31,1.9-2.531,3.9a10.44,10.44,0,0,0,.122,2.955,12.864,12.864,0,0,1-.451,7.131,11.22,11.22,0,0,1-1.437,2.82A.5.5,0,0,1,354.943,398.35Z" transform="translate(-337.611 -362.02)" fill="url(#linear-gradient-3)"/>
  <path id="Path_2667" data-name="Path 2667" d="M447,651.221a.5.5,0,0,1-.437-.747,17.124,17.124,0,0,0,1.935-5.9.5.5,0,1,1,.992.148,18.12,18.12,0,0,1-2.053,6.239A.5.5,0,0,1,447,651.221Z" transform="translate(-425.166 -613.179)" fill="#17c2c9"/>
  <path id="Path_2668" data-name="Path 2668" d="M483.037,471.31h-.005a.5.5,0,0,1-.5-.507,25.219,25.219,0,0,0-.5-5.365.5.5,0,0,1,.977-.228,25.729,25.729,0,0,1,.523,5.6A.5.5,0,0,1,483.037,471.31Z" transform="translate(-458.949 -442.631)" fill="url(#linear-gradient-4)"/>
  <path id="Path_2669" data-name="Path 2669" d="M34.689,59.569a23.926,23.926,0,1,1,9.342-1.886A23.85,23.85,0,0,1,34.689,59.569Zm0-47a22.923,22.923,0,1,0,8.951,1.807A22.853,22.853,0,0,0,34.689,12.572Z" transform="translate(-10.689 -11.569)" fill="url(#linear-gradient-5)"/>
</svg>
