<svg xmlns="http://www.w3.org/2000/svg" width="1075.971" height="187.427" viewBox="0 0 1075.971 187.427">
  <g id="Slogan_gonet_PeopleAreTheWay" transform="translate(-118.5 -91.473)">
    <g id="Grupo_3125" data-name="Grupo 3125">
      <path id="Trazado_2884" data-name="Trazado 2884" d="M163.1,168.5c0,12.1-8.8,19.5-23.3,19.5H124.5v18h-6V149h21.3C154.3,149,163.1,156.3,163.1,168.5Zm-6,0c0-9.1-6-14.3-17.4-14.3H124.6v28.5h15.1C151.1,182.7,157.1,177.5,157.1,168.5Z" fill="#fff"/>
      <path id="Trazado_2885" data-name="Trazado 2885" d="M216.4,200.8V206H176.1V149h39.1v5.2h-33v20.3h29.5v5.1H182.2v21.2Z" fill="#fff"/>
      <path id="Trazado_2886" data-name="Trazado 2886" d="M225.2,177.5c0-16.6,12.7-29,30-29,17.1,0,29.9,12.3,29.9,29s-12.8,29-29.9,29C237.9,206.4,225.2,194.1,225.2,177.5Zm53.8,0c0-13.6-10.2-23.6-23.8-23.6-13.8,0-24,10-24,23.6s10.3,23.6,24,23.6S279,191.1,279,177.5Z" fill="#fff"/>
      <path id="Trazado_2887" data-name="Trazado 2887" d="M343.2,168.5c0,12.1-8.8,19.5-23.3,19.5H304.6v18h-6V149h21.3C334.4,149,343.2,156.3,343.2,168.5Zm-6.1,0c0-9.1-6-14.3-17.4-14.3H304.6v28.5h15.1C331.1,182.7,337.1,177.5,337.1,168.5Z" fill="#fff"/>
      <path id="Trazado_2888" data-name="Trazado 2888" d="M356.2,149h6v51.8h31.9V206H356.2Z" fill="#fff"/>
      <path id="Trazado_2889" data-name="Trazado 2889" d="M444.4,200.8V206H404.1V149h39.1v5.2h-33v20.3h29.5v5.1H410.2v21.2Z" fill="#fff"/>
      <path id="Trazado_2890" data-name="Trazado 2890" d="M515.6,190.7H483.9l-6.8,15.2h-6.3l26-57h5.9l26,57h-6.3Zm-2.1-4.8-13.7-30.6-13.7,30.6Z" fill="#fff"/>
      <path id="Trazado_2891" data-name="Trazado 2891" d="M577.2,206l-13-18.3a33.9,33.9,0,0,1-4.6.2H544.3V206h-6V149h21.3c14.5,0,23.3,7.3,23.3,19.5,0,9-4.7,15.2-13,17.9l13.9,19.5h-6.6Zm-.3-37.5c0-9.1-6-14.3-17.4-14.3H544.4v28.6h15.1C570.8,182.8,576.9,177.5,576.9,168.5Z" fill="#fff"/>
      <path id="Trazado_2892" data-name="Trazado 2892" d="M637.4,200.8V206H597.1V149h39.1v5.2h-33v20.3h29.5v5.1H603.2v21.2Z" fill="#fff"/>
    </g>
    <g id="Grupo_3126" data-name="Grupo 3126">
      <path id="Trazado_2893" data-name="Trazado 2893" d="M772.4,135a1.425,1.425,0,0,1,1.2.6,1.286,1.286,0,0,1,.4,1.2,1.426,1.426,0,0,1-.6,1.2,1.286,1.286,0,0,1-1.2.4q-15.6-.45-50.7,3.9-12.15,24.9-18,43c-4.8,14.2-5.5,22.7-2,25.4a6.667,6.667,0,0,0,2.1.9,7.234,7.234,0,0,0,2.9-.1c1.1-.2,2.2-.4,3.3-.7a30.264,30.264,0,0,0,4-1.5c1.6-.7,3-1.3,4.2-1.9s2.8-1.4,4.7-2.5,3.5-2,4.7-2.7c1.3-.7,2.9-1.7,5-3s3.6-2.2,4.7-2.9,2.7-1.7,4.8-3.1q18.9-12,26.1-15a1.483,1.483,0,0,1,1.3,0,1.962,1.962,0,0,1,.9.9,1.479,1.479,0,0,1,0,1.3,1.962,1.962,0,0,1-.9.9c-4.7,2-13.3,6.9-25.7,14.8-6.5,4.1-11.5,7.2-14.9,9.3a131.225,131.225,0,0,1-12,6.2c-4.6,2.1-8.2,3.2-11.1,3.4a9.043,9.043,0,0,1-6.3-1.6c-4.7-3.6-4.3-13.4,1-29.2,3.8-11.6,9.6-25.4,17.2-41.4a3.869,3.869,0,0,0-.9.1,3.751,3.751,0,0,1-1,.1c-15.9,2-27.3,3.2-34.3,3.7a1.594,1.594,0,0,1-1.2-.4,1.425,1.425,0,0,1-.6-1.2,1.746,1.746,0,0,1,.4-1.2,2.281,2.281,0,0,1,1.2-.6c6.9-.4,18.3-1.6,34.2-3.7,1.2-.1,2.5-.3,3.9-.5,4.6-9.4,9.4-18.5,14.2-27.2a1.451,1.451,0,0,1,2.3-.6,1.533,1.533,0,0,1,.7,2.3c-4.5,8-8.9,16.4-13.1,25.1C745.7,135.9,762,134.7,772.4,135Z" fill="#fff"/>
      <path id="Trazado_2894" data-name="Trazado 2894" d="M858.4,173.6a1.547,1.547,0,0,1-.8,2.3c-10,4.8-21.9,11.9-35.9,21.1-3.3,2.2-5.7,3.8-7.2,4.7a26.831,26.831,0,0,1-4.7,2.6,12.48,12.48,0,0,1-3.9,1.3,3.827,3.827,0,0,1-2.5-.7c-1.1-.9-1.6-2.5-1.4-4.9a53.584,53.584,0,0,1,2.8-11.2,46.067,46.067,0,0,0,2.2-9.5c.3-2.5.3-4,0-4.7a3.881,3.881,0,0,0-1-1.4c-1.4-.8-3.9-.1-7.7,2.2a60.832,60.832,0,0,0-11.8,9.7c-6.8,6.9-12.1,12-15.8,15.3-3.8,3.3-6.2,5.2-7.5,5.8a3.322,3.322,0,0,1-3.2.1q-1.95-.9-1.2-4.8c1-6,3.6-13.9,7.8-23.9,3.7-8.8,6.6-15.5,8.7-20.2s4.7-9.9,7.9-15.8,7.2-12.9,12.1-20.9a99.418,99.418,0,0,1,12.8-16.9c4.4-4.6,8.3-7.8,11.8-9.7s6.5-2.8,9.1-2.6a6.612,6.612,0,0,1,5.8,4.3c1.7,4.3.5,10.7-3.7,19.1s-10.9,17.9-20.1,28.4a115.255,115.255,0,0,1-9.9,10.1q-5.7,5.4-9.6,8.7c-2.6,2.2-6.1,5.1-10.6,8.9-1.8,1.5-3.2,2.6-4.2,3.5q-1.35,1.2-3.6,3c-1.4,1.2-2.7,2.3-3.8,3.3a.494.494,0,0,1-.3.1c-3.6,8.8-5.9,15.9-6.8,21.3-.1.3-.1.6-.2.8,2.9-1.6,10.3-8.3,22.1-20.3a15.273,15.273,0,0,1,1.8-1.8c.7-.6,1.7-1.5,2.9-2.6s2.5-2.1,3.7-3,2.6-1.8,4-2.7a32.134,32.134,0,0,1,4.1-2.1,13.769,13.769,0,0,1,3.9-.9,5.769,5.769,0,0,1,3.3.7c3.7,2.2,3.7,8.7.1,19.3-2.3,7.2-3.2,11.3-2.5,12.5,1,.2,5.8-2.5,14.2-8.1,14.1-9.4,26.2-16.6,36.3-21.5C857.2,172.4,857.9,172.6,858.4,173.6Zm-60.2-50.8q-9.75,15.9-14.7,25.8c-3.3,6.6-7.2,15.2-11.6,25.7q2.25-1.8,6.9-5.7c4.5-3.7,8-6.7,10.5-8.8,2.6-2.1,5.7-5,9.5-8.6s7-6.8,9.6-9.8c9.5-10.9,16.2-20.6,20.2-29.1q4.95-10.35,3-15a3.035,3.035,0,0,0-3-2.1,2.769,2.769,0,0,0-.9-.1c-3.5.2-8,2.8-13.5,7.7C808.8,107.7,803.5,114.4,798.2,122.8Z" fill="#fff"/>
      <path id="Trazado_2895" data-name="Trazado 2895" d="M917,170a1.494,1.494,0,0,1-.8,2.3,285,285,0,0,0-35.5,21.5c-3.9,2.7-6.7,4.5-8.4,5.6-6.6,4.2-12.2,6.4-16.7,6.6-3.8.2-6.7-.8-8.6-3.2-2.2-2.9-2.6-7-1.1-12.1,1.5-5.2,4.7-10.6,9.4-16.2,0-.1,0-.1.1-.1a1.6,1.6,0,0,1,1.4-1.5c.9-1,1.8-1.9,2.7-2.9a71.876,71.876,0,0,1,8.7-7.4,20.769,20.769,0,0,1,6.5-3.3,13.637,13.637,0,0,1,4.1-.5,5.231,5.231,0,0,1,2.4.8c2.2,1.5,2.8,3.8,1.6,6.9-1.3,3.3-4.1,6-8.4,8-4.4,2-9.8,2.7-16.2,1.9q-6.6,7.65-8.7,14.4c-1.5,4.5-1.3,7.8.3,9.9a5.536,5.536,0,0,0,3.7,1.9,16.8,16.8,0,0,0,7-1.1,46.492,46.492,0,0,0,10-5c1.6-1,4.4-2.8,8.2-5.4a299.476,299.476,0,0,1,36.1-21.7C915.8,168.7,916.5,169,917,170Zm-55,2.3a9.023,9.023,0,0,0-.9,1c5.1.2,9.2-.5,12.5-2.2,3.2-1.7,5.2-3.6,6-5.8.5-1.4.4-2.4-.3-2.9a2.649,2.649,0,0,0-1.4-.3,9.3,9.3,0,0,0-2.4.5,16.975,16.975,0,0,0-3.4,1.6,29.78,29.78,0,0,0-4.5,3.2A59.423,59.423,0,0,0,862,172.3Z" fill="#fff"/>
      <path id="Trazado_2896" data-name="Trazado 2896" d="M1057.7,161.6a1.494,1.494,0,0,1-.8,2.3,102.558,102.558,0,0,1-9.4,4.2c-2.9,1.1-5.5,2-7.6,2.6a19.835,19.835,0,0,1-6.3.8,33.364,33.364,0,0,1-5-.3,19.091,19.091,0,0,1-4.4-1.3,25.722,25.722,0,0,1-3.7-1.8c-.8-.5-2.1-1.3-3.6-2.3a19.4,19.4,0,0,1-2-1.4c-1.2.9-5,4.5-11.2,10.8-6.2,6.1-11,10.8-14.6,14.2a106.693,106.693,0,0,1-9.2,7.7c-2.5,1.8-4.5,2.8-6,2.9a2.73,2.73,0,0,1-1.8-.5c-1-.7-1.5-1.9-1.3-3.7a31.028,31.028,0,0,1,2.6-7.7c1.7-3.9,3.8-8.4,6.4-13.6a1.069,1.069,0,0,0,.3-.5l.3-.6q-1.35,1.2-4.2,3.9c-4.7,4.3-8.6,7.9-12,11-9.2,8.3-15.4,11.9-18.5,10.7a3.2,3.2,0,0,1-2.1-3.1c-.4-3.4,1.8-8.4,6.5-15s9.5-11.4,14.2-14.5a1.583,1.583,0,0,1,2.4.5,1.547,1.547,0,0,1-.5,2.4,45,45,0,0,0-10.5,9.7,56.178,56.178,0,0,0-7.2,10.9c-1.5,3.2-2,5.1-1.6,6a2.585,2.585,0,0,0,1.4-.2,28.209,28.209,0,0,0,4.7-2.8,69.93,69.93,0,0,0,8.7-7c3.3-3,7.4-6.6,12.1-11,3.4-3.2,5.6-5.2,6.6-6.2.6-.4,1-.8,1.3-1a10.542,10.542,0,0,1,1.1-.7,2.663,2.663,0,0,1,1.2-.3,2.607,2.607,0,0,1,1.1.3,2.9,2.9,0,0,1,.6,2.5,44.579,44.579,0,0,1-2.9,6.4c-2.6,5.2-4.7,9.7-6.4,13.5a30.21,30.21,0,0,0-1.8,4.7,11.269,11.269,0,0,0-.5,2.4c2.7-.7,11.7-8.6,27-23.8,6.1-6,9.8-9.5,11.3-10.7,1.4-1.2,2.6-1.5,3.5-.9.6.4,1.6,1,2.8,1.8,2.2,1.4,3.8,2.4,5,3a23.89,23.89,0,0,0,5.1,1.8,14.752,14.752,0,0,0,6.6.3,56.464,56.464,0,0,0,8.5-2.2,97.816,97.816,0,0,0,11.8-5.1C1056.4,160.4,1057.1,160.6,1057.7,161.6Z" fill="#fff"/>
      <path id="Trazado_2897" data-name="Trazado 2897" d="M1126.4,156.6a1.963,1.963,0,0,1,.9.9,1.479,1.479,0,0,1,0,1.3,1.962,1.962,0,0,1-.9.9c-9,3.8-22.7,11.8-40.9,23.9-5.2,3.4-9,5.8-11.4,7.1a13.7,13.7,0,0,1-5.3,2.2,2.882,2.882,0,0,1-2-.7c-1.1-.9-1.1-2.6-.2-5.1s3.3-7.3,7.1-14.5c.3-.7.6-1.3.9-1.9-2.5,1.2-6.9,4.6-13.3,10l-.8.7c-10.1,8.4-16.6,11-19.7,7.9-1.7-1.8-1.4-5,.9-9.7,2.3-4.6,6.4-10.2,12.3-16.7a26.463,26.463,0,0,1,8.6-6.6,11.23,11.23,0,0,1,7.9-.9c3.8,1.2,6.2,4.3,7.1,9.5.1,1.1-.3,1.7-1.3,1.9a3.128,3.128,0,0,1,1,.5c1.4,1.1,1.1,3.3-.7,6.8-4.3,8.2-6.8,13.3-7.3,15,1.8-.6,6.6-3.5,14.3-8.6,18.4-12.1,32.1-20.1,41.3-24.1A3.2,3.2,0,0,1,1126.4,156.6Zm-67.2,21.6c8.5-7.3,13.9-11,16.2-11.3a1.3,1.3,0,0,1-1-1.3c-.7-3.8-2.3-6.1-4.8-6.8a7.047,7.047,0,0,0-2.1-.1c-3.4.2-7,2.5-11,6.8a85.008,85.008,0,0,0-9.1,11.4,35.336,35.336,0,0,0-4,7.4c-.4,1.5-.5,2.5-.2,2.8a1.549,1.549,0,0,0,.8.2,6.513,6.513,0,0,0,1.8-.4c.8-.3,1.8-.7,2.9-1.2a28.647,28.647,0,0,0,4.2-2.6c1.7-1.2,3.6-2.6,5.6-4.2Z" fill="#fff"/>
      <path id="Trazado_2898" data-name="Trazado 2898" d="M1194.3,153.5a1.522,1.522,0,0,1-.9,2.2,274.493,274.493,0,0,0-53.4,31.4c-5.9,12-12.3,24.1-19.2,36.2q-14.7,25.95-26.6,40.6c-7.9,9.8-14,14.8-18.4,15h-1.3c-2.2-.5-3.4-2.1-3.7-4.8-.5-4.7,1.7-12,6.6-21.7,4.9-9.8,11.9-20.1,21.1-30.9a238.628,238.628,0,0,1,38.9-36.6c5.8-12,9.3-20.1,10.4-24.3-2,1.7-5,4.4-8.8,8-2.8,2.5-4.9,4.5-6.5,5.9s-3.6,3.1-6.2,5.2a58.753,58.753,0,0,1-7.5,5.1c-3.9,2.3-6.8,2.1-8.5-.5-1.9-2.8-1.5-7,1-12.5s6.6-10.4,12.3-14.8a1.46,1.46,0,0,1,2.4.3,1.512,1.512,0,0,1-.3,2.4,36.9,36.9,0,0,0-11,12.9c-2.3,4.8-2.9,8.1-1.7,9.8.6.9,2,.7,4.1-.6a55.516,55.516,0,0,0,7.1-4.8c2.5-1.9,4.4-3.5,6-4.9,1.5-1.4,3.7-3.3,6.4-6,4.2-3.9,7.4-6.9,9.7-8.8,1.7-1.4,3.1-1.6,4.2-.7a2.335,2.335,0,0,1,.7.7,4.778,4.778,0,0,1,.1,1.9,17.271,17.271,0,0,1-.8,3.8,69.594,69.594,0,0,1-2.6,6.8c-1.2,3-2.8,6.6-4.7,10.8a278.581,278.581,0,0,1,48.9-28,1.275,1.275,0,0,1,1.2,0A1.707,1.707,0,0,1,1194.3,153.5Zm-76.4,68.2c5.7-10,11-20,15.9-29.8a235.114,235.114,0,0,0-32.7,31.8,206.63,206.63,0,0,0-13.1,17.2,120.687,120.687,0,0,0-8.6,14.8,65.551,65.551,0,0,0-4.2,10.9,18.624,18.624,0,0,0-1,7.1c.1,1.2.4,1.9.9,2a5.422,5.422,0,0,0,3-.9,31.645,31.645,0,0,0,5.8-4.7,118.619,118.619,0,0,0,8.4-9.2q4.65-5.7,11.4-15.9C1108.1,238.2,1112.9,230.4,1117.9,221.7Z" fill="#fff"/>
    </g>
  </g>
</svg>
